C:\Users\sindr\Programmering 2\Mappe2\patientregister\src\main\java\module-info.java
C:\Users\sindr\Programmering 2\Mappe2\patientregister\src\main\java\mappe\del2\patientregister\exception\RemoveException.java
C:\Users\sindr\Programmering 2\Mappe2\patientregister\src\main\java\mappe\del2\patientregister\ui\FileDialog.java
C:\Users\sindr\Programmering 2\Mappe2\patientregister\src\main\java\mappe\del2\patientregister\ui\Factory.java
C:\Users\sindr\Programmering 2\Mappe2\patientregister\src\main\java\mappe\del2\patientregister\exception\AddException.java
C:\Users\sindr\Programmering 2\Mappe2\patientregister\src\main\java\mappe\del2\patientregister\PatientRegister.java
C:\Users\sindr\Programmering 2\Mappe2\patientregister\src\main\java\mappe\del2\patientregister\Patient.java
C:\Users\sindr\Programmering 2\Mappe2\patientregister\src\main\java\mappe\del2\patientregister\percistence\FileManagement.java
C:\Users\sindr\Programmering 2\Mappe2\patientregister\src\main\java\mappe\del2\patientregister\ui\PatientRegisterApp.java
C:\Users\sindr\Programmering 2\Mappe2\patientregister\src\main\java\mappe\del2\patientregister\controll\MainController.java
C:\Users\sindr\Programmering 2\Mappe2\patientregister\src\main\java\mappe\del2\patientregister\ui\PatientDialog.java
